XmlList realms = xmlDoc.DocumentElement.ChildNodes;
foreach(XmlNode realm in realms)
{
	XmlList characters = realm.ChildNodes;
	foreach(XmlNode stats in characters)
	{
		if(stats.ChildNodes[2].InnerText.Equals("Wizard")
		{
			Debug.Log(stats.ChildNodes[3].Attribute["max"].Value);
		}
	}
}

-----------------------------------------------------------------------------------------------------------------------------------------------------------------------------------------------------------------------------------------

foreach(xmlNode realm in xmlDoc.DocumentElement.ChildNodes) // Access children under the document element
	foreach(xmlNode character in realm)		    // Access children under the above node
		Debug.Log(character.InnerText);		    // Access the text within the nodes

-----------------------------------------------------------------------------------------------------------------------------------------------------------------------------------------------------------------------------------------

foreach(xmlNode character in xmlDoc.DocumentElement.ChildNodes[0])
	Debug.log(character.InnerText);

-----------------------------------------------------------------------------------------------------------------------------------------------------------------------------------------------------------------------------------------

foreach(XmlNode realm in xmlDoc.DocumentElement.ChildNodes)
{
	foreach(XmlNode character in realm)
	{
		if(character.ChildNodes[2].InnerText.Equals("Fighter"))
		{
			Vector3 location = new Vector3(float.Parse(character.ChildNodes[4].ChildNodes[1].Attribute["x"].Value), 
						       float.Parse(character.ChildNodes[4].ChildNodes[1].Attribute["y"].Value),
						       float.Parse(character.ChildNodes[4].ChildNodes[1].Attribute["z"].Value));
			Debug.Log(location.ToString());
		}
	}
}

-----------------------------------------------------------------------------------------------------------------------------------------------------------------------------------------------------------------------------------------

foreach(xmlNode realm in xmlDoc.DocumentElement.ChildNodes)
	foreach(xmlNode character in realm)
		if(character.ChildNodes[2].InnerText.Equals("Fighter"))
			Debug.Log(character.InnerText);

-----------------------------------------------------------------------------------------------------------------------------------------------------------------------------------------------------------------------------------------







